[
   {
     "name": "Yamaha yzf r1 carbon fiber 2020",
     "price": "$17,399",
     "image": "https://www.carbonin.com/wp-content/uploads/2020/04/yamaha-yzfr1-2020-carbonin-carbon1-1024x768.jpg",
     "vendorCode": 6194,
     "color": "black"
   },
   {
     "name": "Yamaha YZF-R3",
     "price": "$7 484",
     "image": "https://183024.selcdn.ru/yamaha_brand/storage/images/equipment/360/yzf-r3/2018_YAM_YZF-R320_EU_DPBMC_360_001.jpg",
     "vendorCode": 75064,
     "color": "blue"
   },
   {
     "name": "Yamaha YZF-R6 2014",
     "price": "$4 226",
     "image": "https://avto-russia.ru/moto/yamaha/photo/yamaha_yzf-r6_2014_1.jpg",
     "vendorCode": 241056,
     "color": "white"
   },
   {
     "name": "Kawasaki Ninja 650 2020",
     "price": "$9 318",
     "image": "https://motorrika.ru/image/cache/catalog/!!!-ALEX/MOTO/KAWASAKI/!-NINJA/2020/Ninja%20650/05-1600x1200.jpg",
     "vendorCode": 7007,
     "color": "black"
   },
   {
     "name": "Kawasaki Z400 2020",
     "price": "$6 750",
     "image": "https://motorrika.ru/image/cache/catalog/!!!-ALEX/MOTO/KAWASAKI/!-Z/2020/Z400%20%D0%A1%D0%B5%D1%80%D1%8B%D0%B9%202020/01-1600x1200.jpg",
     "vendorCode": 93645,
     "color": "green"
   },
   {
     "name": "KAWASAKI Z900 2020",
     "price": "$11 062",
     "image": "https://motorrika.ru/image/cache/catalog/!!!-ALEX/MOTO/KAWASAKI/!-Z/2020/Z900/06-1600x1200.jpg",
     "vendorCode": 8108,
     "color": "white"
   },
   {
     "name": "BMW S1000RR 2019",
     "price": "$21 605",
     "image": "https://in-moto.ru/wp-content/uploads/2018/11/P90327364_highRes_bmw-s-1000-rr-with-m.jpg",
     "vendorCode": 11168,
     "color": "black"
   },
   {
     "name": "Honda CBR 1000RR",
     "price": "$12 701",
     "image": "https://carbiketech.com/wp-content/uploads/2014/06/2010-Honda-CBR1000RR-white-Fireblades2.jpg",
     "vendorCode": 33656,  
     "color": "white"
   },
   {
     "name": "KAWASAKI Ninja H2 SX SE+ 2020",
     "price": "$30 310",
     "image": "https://motorrika.ru/image/cache/catalog/!!!-ALEX/MOTO/KAWASAKI/!-NINJA/2020/Ninja%20H2%20SX%20SE+%20%D0%B7%D0%B5%D0%BB%D0%B5%D0%BD%D1%8B%D0%B9%202020/01-1600x1200.jpg",
     "vendorCode": 607785,
     "color": "green"
   },
   {
     "name": "Ducatti Desmosedici GP8 1/5 Red",
     "price": "$6401",
     "image": "https://modelistam.com.ua/images/6528-f272a2_thundertiger_3.jpg",
     "vendorCode": 6528,
     "color": "red"
   }
 ]
 